…
```
## # A tibble: 25 x 5
##    name    est_num_alive q1_age median_age q3_age
##    <chr>           <dbl>  <dbl>      <dbl>  <dbl>
##  1 Jayden        108040.      5          7      9
##  2 Gavin         123965.      6          9     14
##  3 Elijah        173890.      7         10     16
##  4 Jackson       137388.      6         10     14
##  5 Mason         146945.      7         10     16
##  6 Ethan         301095.      7         11     15
##  7 Isaiah        147415.      7         11     16
##  8 Noah          235747.      7         11     16
##  9 Angel         175959.      8         12     22
## 10 Connor        153266.      8         12     17
## # ... with 15 more rows
```
…
```r
earliestandlatest <- babynames %>%
  group_by(name) %>%
  summarize(
    earliest = min(year),
    latest = max(year)
  ) %>%
  head(25)
earliestandlatest
```

```
## # A tibble: 25 x 3
##    name      earliest latest
##    <chr>        <dbl>  <dbl>
##  1 Aaban         2007   2017
##  2 Aabha         2011   2016
##  3 Aabid         2003   2016
##  4 Aabir         2016   2016
##  5 Aabriella     2008   2017
##  6 Aada          2015   2015
##  7 Aadam         1987   2017
##  8 Aadan         2003   2017
##  9 Aadarsh       2000   2017
## 10 Aaden         2001   2017
## # ... with 15 more rows
```
…
6. It seems like there is more diversity of names now than in the past. How have the number of names used changed over time? Has it been the same for boys and girls? 


```r
namechange <- babynames %>%
  group_by(year, sex) %>%
  summarise(UniqueNames = n_distinct(name)) %>%
  arrange(desc(UniqueNames))
namechange
```

```
## # A tibble: 276 x 3
## # Groups:   year [138]
##     year sex   UniqueNames
##    <dbl> <chr>       <int>
##  1  2007 F           20560
##  2  2008 F           20457
##  3  2009 F           20179
##  4  2006 F           20050
##  5  2010 F           19811
##  6  2011 F           19560
##  7  2012 F           19498
##  8  2013 F           19231
##  9  2005 F           19182
## 10  2014 F           19181
## # ... with 266 more rows
```
…
7. Find the most popular names of the 1990s. 


```r
nineties <- babynames %>%
  filter(year >= 1990 & year < 2000) %>%
  group_by(name) %>%
  summarize(num_births = sum(n)) %>%
  arrange(desc(num_births))
nineties
```

```
## # A tibble: 45,928 x 2
##    name        num_births
##    <chr>            <int>
##  1 Michael         464249
##  2 Christopher     361251
##  3 Matthew         352341
##  4 Joshua          330046
##  5 Jessica         303854
##  6 Ashley          303125
##  7 Jacob           298926
##  8 Nicholas        275906
##  9 Andrew          273515
## 10 Daniel          273347
## # ... with 45,918 more rows
```
